[{"iban":"FR57 6939 4150 49UK 5NZM 93CB E23","user_id":27,"balance":3096.24},
{"iban":"AL27 8062 3436 FGZK LEHM A5SE UAWR","user_id":1,"balance":403.11},
{"iban":"SI96 4198 3505 4207 764","user_id":28,"balance":1811.52},
{"iban":"FR98 4024 4066 60HI PWAF UQYJ 597","user_id":20,"balance":1331.82},
{"iban":"DK35 3278 3187 3986 55","user_id":10,"balance":2781.86},
{"iban":"MU48 TJKX 9291 6749 7480 3663 849X AO","user_id":20,"balance":2654.52},
{"iban":"AT04 0750 4003 8079 7148","user_id":21,"balance":204.48},
{"iban":"SA37 88DV 7ZMM 3BFM EEFI VMLI","user_id":2,"balance":-96.83},
{"iban":"AD09 9457 0334 SHJF JFYO VYO6","user_id":25,"balance":2576.25},
{"iban":"CH32 4985 5QVK F5DZ WBLA 1","user_id":30,"balance":1958.77},
{"iban":"PS94 UINI X5KB PSMA MNXG R6E7 1TT5 G","user_id":27,"balance":1279.72},
{"iban":"GR12 7336 370Z KGXD SXPZ I2QQ BMX","user_id":20,"balance":1394.41},
{"iban":"FR31 5161 7896 98ZP DIQ4 2KND R56","user_id":7,"balance":738.47},
{"iban":"FR16 8494 3842 08EF PHZ2 9XIA V01","user_id":28,"balance":1148.77},
{"iban":"FR15 1312 0224 84T8 5U7I FV4X Q20","user_id":3,"balance":350.71},
{"iban":"FR29 5897 1141 69WU ESFE JBGU M55","user_id":23,"balance":1026.57},
{"iban":"NO79 5020 3083 102","user_id":28,"balance":3425.0},
{"iban":"DO22 C7GB 1573 8308 4604 4256 0783","user_id":22,"balance":3505.84},
{"iban":"MU18 FXWJ 1918 5608 7114 1793 359E TU","user_id":14,"balance":2684.24},
{"iban":"SM18 T144 4718 401P S8WN OPJQ UAY","user_id":5,"balance":2545.1},
{"iban":"FI12 1041 4241 2217 94","user_id":5,"balance":2588.44},
{"iban":"ME96 1290 2396 8232 0788 86","user_id":15,"balance":3577.23},
{"iban":"LI02 4991 4LZT FNXS EDIH O","user_id":24,"balance":1900.99},
{"iban":"PT68 3226 8555 2333 5198 2360 0","user_id":1,"balance":1846.65},
{"iban":"HR66 0991 3483 1845 5718 8","user_id":26,"balance":379.83},
{"iban":"BH91 CGNB LYP9 0XVK Y9P8 LE","user_id":16,"balance":3890.66},
{"iban":"FR91 3965 1802 29AS 8MQR 4ZUW L74","user_id":27,"balance":631.87},
{"iban":"LU10 778Q A8WH UOJG MEZY","user_id":8,"balance":2541.94},
{"iban":"NO61 6072 3904 992","user_id":10,"balance":1398.06},
{"iban":"TR34 7109 9NZM LVBI SHGD KGVH WN","user_id":17,"balance":2489.71},
{"iban":"BG41 HIOM 2552 37RQ 4AC9 DF","user_id":21,"balance":1023.42},
{"iban":"GB23 TOCN 0221 7576 6084 39","user_id":1,"balance":2755.11},
{"iban":"KW89 TWCV HZUQ COGZ WMFQ SBHN JS6T RK","user_id":6,"balance":2603.46},
{"iban":"RS21 5492 0534 8097 0069 13","user_id":8,"balance":1119.81},
{"iban":"ES47 1373 6811 6403 0774 7123","user_id":29,"balance":291.0},
{"iban":"BG07 PJCZ 0798 82DP ZH1L I6","user_id":17,"balance":463.9},
{"iban":"VG82 RHNX 8039 9142 7599 2272","user_id":25,"balance":3142.06},
{"iban":"PL76 7863 3958 6503 1068 2931 9741","user_id":22,"balance":-24.71},
{"iban":"PS59 LAAJ NT1F 7KBY ZDUR HO1L RGB7 5","user_id":27,"balance":1581.59},
{"iban":"MD19 5VGI HQNQ 8QV1 DFR6 H8Q2","user_id":26,"balance":1702.14},
{"iban":"SK92 5904 6698 9931 3800 3441","user_id":7,"balance":3695.93},
{"iban":"LV42 NYXK XZC3 6VBQ U6IE 1","user_id":13,"balance":3711.65},
{"iban":"GL49 4406 6931 0244 17","user_id":9,"balance":1773.57},
{"iban":"IS09 7023 1409 1129 6046 9188 80","user_id":27,"balance":149.25},
{"iban":"FR83 0494 2726 42CT IEQG XY3N K26","user_id":20,"balance":2729.46},
{"iban":"GB93 HMYY 0908 7412 9875 55","user_id":22,"balance":1395.99},
{"iban":"VG22 VLEE 7899 8195 1295 3471","user_id":26,"balance":3440.69},
{"iban":"RS27 3984 4059 3773 7811 44","user_id":8,"balance":2099.04},
{"iban":"GB66 ZWTD 8727 8554 4162 52","user_id":26,"balance":1254.42},
{"iban":"PL37 8679 2998 0538 6640 4431 4639","user_id":8,"balance":1310.42},
{"iban":"LB96 3428 MXZS 21OJ RGKX 9WK4 S8NY","user_id":15,"balance":1002.51},
{"iban":"LV98 YOVZ PEVW TLIX SI2X D","user_id":13,"balance":3622.19},
{"iban":"FR47 7881 3664 59WT 5DVA QTSO X03","user_id":9,"balance":2406.81},
{"iban":"GR20 0369 4232 SXVU 09UO WY5I PNM","user_id":17,"balance":169.76},
{"iban":"GE45 MG23 8034 4312 7259 17","user_id":3,"balance":1864.55},
{"iban":"FR04 9180 6851 35QX JZC2 WKQT O50","user_id":10,"balance":2983.39},
{"iban":"LV19 FQNL NO7Y XQYW BQEI A","user_id":13,"balance":3287.36},
{"iban":"CR29 0109 5034 7628 5644 0","user_id":17,"balance":1010.32},
{"iban":"DE67 6590 3534 3361 1265 63","user_id":9,"balance":-27.64},
{"iban":"SK16 0156 9320 4443 0697 8699","user_id":28,"balance":3994.39}]
